%YAML 1.1
%TAG !u! tag:unity3d.com,2011:
--- !u!74 &7400000
AnimationClip:
  m_ObjectHideFlags: 0
  m_PrefabParentObject: {fileID: 0}
  m_PrefabInternal: {fileID: 0}
  m_Name: ceres1
  serializedVersion: 6
  m_Legacy: 0
  m_Compressed: 0
  m_UseHighQualityCurve: 1
  m_RotationCurves: []
  m_CompressedRotationCurves: []
  m_EulerCurves: []
  m_PositionCurves: []
  m_ScaleCurves: []
  m_FloatCurves: []
  m_PPtrCurves:
  - curve:
    - time: 0
      value: {fileID: 21300000, guid: 34aea992ce2a4684d9a09fdc91b339a8, type: 3}
    - time: 0.083333336
      value: {fileID: 21300000, guid: 1ec6de15aae3dc842a4e5b32d3345d9b, type: 3}
    - time: 0.16666667
      value: {fileID: 21300000, guid: e68f33ec34b186041b217c3eb97a542a, type: 3}
    - time: 0.25
      value: {fileID: 21300000, guid: bde87eaaf1a3b744991efc797e5f71ed, type: 3}
    - time: 0.33333334
      value: {fileID: 21300000, guid: bf1edc5f5f4d7f5428fc196236223f65, type: 3}
    - time: 0.41666666
      value: {fileID: 21300000, guid: f0bc182c50a41e146b9f274b74e3c097, type: 3}
    - time: 0.5
      value: {fileID: 21300000, guid: b37e3b07377fa0c48a1aeb6d2922e54f, type: 3}
    attribute: m_Sprite
    path: 
    classID: 212
    script: {fileID: 0}
  m_SampleRate: 12
  m_WrapMode: 0
  m_Bounds:
    m_Center: {x: 0, y: 0, z: 0}
    m_Extent: {x: 0, y: 0, z: 0}
  m_ClipBindingConstant:
    genericBindings:
    - serializedVersion: 2
      path: 0
      attribute: 0
      script: {fileID: 0}
      typeID: 212
      customType: 23
      isPPtrCurve: 1
    pptrCurveMapping:
    - {fileID: 21300000, guid: 34aea992ce2a4684d9a09fdc91b339a8, type: 3}
    - {fileID: 21300000, guid: 1ec6de15aae3dc842a4e5b32d3345d9b, type: 3}
    - {fileID: 21300000, guid: e68f33ec34b186041b217c3eb97a542a, type: 3}
    - {fileID: 21300000, guid: bde87eaaf1a3b744991efc797e5f71ed, type: 3}
    - {fileID: 21300000, guid: bf1edc5f5f4d7f5428fc196236223f65, type: 3}
    - {fileID: 21300000, guid: f0bc182c50a41e146b9f274b74e3c097, type: 3}
    - {fileID: 21300000, guid: b37e3b07377fa0c48a1aeb6d2922e54f, type: 3}
  m_AnimationClipSettings:
    serializedVersion: 2
    m_AdditiveReferencePoseClip: {fileID: 0}
    m_AdditiveReferencePoseTime: 0
    m_StartTime: 0
    m_StopTime: 0.5833333
    m_OrientationOffsetY: 0
    m_Level: 0
    m_CycleOffset: 0
    m_HasAdditiveReferencePose: 0
    m_LoopTime: 1
    m_LoopBlend: 0
    m_LoopBlendOrientation: 0
    m_LoopBlendPositionY: 0
    m_LoopBlendPositionXZ: 0
    m_KeepOriginalOrientation: 0
    m_KeepOriginalPositionY: 1
    m_KeepOriginalPositionXZ: 0
    m_HeightFromFeet: 0
    m_Mirror: 0
  m_EditorCurves: []
  m_EulerEditorCurves: []
  m_HasGenericRootTransform: 0
  m_HasMotionFloatCurves: 0
  m_GenerateMotionCurves: 0
  m_Events: []
